____________________________________________________________________
 *  *  *   Overview of Software Power Consumers   *  *  *

Usage;Wakeups/s;GPU ops/s;Disk IO/s;GFX Wakeups/s;Category;Description;PW Estimate
683.0 us/s;  4.8;;;;kWork;vmw_fb_dirty_flush;    0 mW
500.9 us/s; 0.15;;;;Process;[PID 65938] powertop --csv ;    0 mW
  0.0 us/s;  0.4;;;;kWork;disk_events_workfn;    0 mW
;;;;;;;
;;;;;;;
;;;;;;;
;;;;;;;
;;;;;;;
;;;;;;;
;;;;;;;
;;;;;;;
;;;;;;;
;;;;;;;
;;;;;;;
;;;;;;;
;;;;;;;
;;;;;;;
;;;;;;;
;;;;;;;
;;;;;;;
;;;;;;;
;;;;;;;
;;;;;;;
;;;;;;;
;;;;;;;
;;;;;;;
;;;;;;;
;;;;;;;
;;;;;;;
;;;;;;;
;;;;;;;



____________________________________________________________________
 *  *  *   Device Power Report   *  *  *

Usage;Device Name;PW Estimate
  0.0 pkts/s;Network interface: enp0s3 (e1000);  6.99 W
  0.5%;CPU core;    0 mW
  0.5%;DRAM;    0 mW
  0.5%;CPU misc;    0 mW
100.0%;PCI Device: Apple Inc. KeyLargo/Intrepid USB;
100.0%;PCI Device: Intel Corporation 82801FB/FBM/FR/FW/FRW (ICH6 Family) USB2 EHCI Controller;
100.0%;PCI Device: Intel Corporation 82801AA AC'97 Audio Controller;
100.0%;PCI Device: VMware SVGA II Adapter;
  0.0%;USB device: OHCI PCI host controller;
  0.0%;I2C Adapter (i2c-0): SMBus PIIX4 adapter at 4100;
____________________________________________________________________
